[gd_scene load_steps=6 format=1]

[ext_resource path="res://main.gd" type="Script" id=1]
[ext_resource path="res://Cube.msh" type="Mesh" id=2]

[sub_resource type="FixedMaterial" id=1]

flags/visible = true
flags/double_sided = false
flags/invert_faces = false
flags/unshaded = false
flags/on_top = false
flags/lightmap_on_uv2 = true
flags/colarray_is_srgb = true
params/blend_mode = 0
params/depth_draw = 1
params/line_width = 0.0
fixed_flags/use_alpha = false
fixed_flags/use_color_array = false
fixed_flags/use_point_size = false
fixed_flags/discard_alpha = false
fixed_flags/use_xy_normalmap = false
params/diffuse = Color( 0.898438, 0.186005, 0.186005, 1 )
params/specular = Color( 0, 0, 0, 1 )
params/emission = Color( 0, 0, 0, 1 )
params/specular_exp = 40
params/detail_mix = 1.0
params/normal_depth = 1
params/shader = 0
params/shader_param = 0.5
params/glow = 0
params/point_size = 1.0
uv_xform = Transform( 1, 0, 0, 0, 1, 0, 0, 0, 1, 0, 0, 0 )
textures/diffuse_tc = 0
textures/detail_tc = 0
textures/specular_tc = 0
textures/emission_tc = 0
textures/specular_exp_tc = 0
textures/glow_tc = 0
textures/normal_tc = 0
textures/shade_param_tc = 0

[sub_resource type="ConcavePolygonShape" id=2]

data = Vector3Array( 1, -0.9998, 1, 1, -0.9998, -0.9998, -0.9998, -0.9998, 1, -0.9998, -0.9998, 1, 1, -0.9998, -0.9998, -0.9998, -0.9998, -0.9998, -0.9998, 1, -0.9998, 1, 1, -0.9998, -0.9998, 1, 1, -0.9998, 1, 1, 1, 1, -0.9998, 1, 1, 1, 1, 1, -0.9998, 1, -0.9998, -0.9998, 1, 1, 1, 1, 1, 1, 1, -0.9998, -0.9998, 1, -0.9998, 1, 1, 1, 1, 1, -0.9998, 1, -0.9998, 1, 1, -0.9998, 1, 1, 1, -0.9998, 1, -0.9998, -0.9998, 1, -0.9998, 1, 1, -0.9998, -0.9998, 1, -0.9998, 1, -0.9998, -0.9998, 1, -0.9998, -0.9998, -0.9998, 1, -0.9998, -0.9998, -0.9998, 1, -0.9998, -0.9998, 1, 1, -0.9998, -0.9998, -0.9998, -0.9998, -0.9998, -0.9998, -0.9998, 1, 1, -0.9998, -0.9998, 1, -0.9998 )

[sub_resource type="FixedMaterial" id=3]

flags/visible = true
flags/double_sided = false
flags/invert_faces = false
flags/unshaded = false
flags/on_top = false
flags/lightmap_on_uv2 = true
flags/colarray_is_srgb = true
params/blend_mode = 0
params/depth_draw = 1
params/line_width = 0.0
fixed_flags/use_alpha = false
fixed_flags/use_color_array = false
fixed_flags/use_point_size = false
fixed_flags/discard_alpha = false
fixed_flags/use_xy_normalmap = false
params/diffuse = Color( 0.100723, 0.628906, 0.158493, 1 )
params/specular = Color( 0, 0, 0, 1 )
params/emission = Color( 0, 0, 0, 1 )
params/specular_exp = 40
params/detail_mix = 1.0
params/normal_depth = 1
params/shader = 0
params/shader_param = 0.5
params/glow = 0
params/point_size = 1.0
uv_xform = Transform( 1, 0, 0, 0, 1, 0, 0, 0, 1, 0, 0, 0 )
textures/diffuse_tc = 0
textures/detail_tc = 0
textures/specular_tc = 0
textures/emission_tc = 0
textures/specular_exp_tc = 0
textures/glow_tc = 0
textures/normal_tc = 0
textures/shade_param_tc = 0

[node name="Main" type="Spatial"]

_import_transform = Transform( 1, 0, 0, 0, 1, 0, 0, 0, 1, 0, 0, 0 )
script/script = ExtResource( 1 )

[node name="block1" type="MeshInstance" parent="."]

_import_transform = Transform( 1, 0, 0, 0, 1, 0, 0, 0, 1, 0, 0, 0 )
transform/local = Transform( 1, 0, 0, 0, 1, 0, 0, 0, 1, 0, 3.10367, 0 )
layers = 1
geometry/visible = true
geometry/material_override = SubResource( 1 )
geometry/cast_shadow = 1
geometry/receive_shadows = true
geometry/range_begin = 0.0
geometry/range_end = 0.0
geometry/extra_cull_margin = 0.0
geometry/billboard = false
geometry/billboard_y = false
geometry/depth_scale = false
geometry/visible_in_all_rooms = false
geometry/use_baked_light = false
geometry/baked_light_tex_id = 0
mesh/mesh = ExtResource( 2 )
mesh/skeleton = NodePath("..")
material/0 = null

[node name="block2" type="StaticBody" parent="."]

_import_transform = Transform( 1, 0, 0, 0, 1, 0, 0, 0, 1, 0, 0, 0 )
input/ray_pickable = false
input/capture_on_drag = false
shape_count = 1
shapes/0/shape = SubResource( 2 )
shapes/0/transform = Transform( 1, 0, 0, 0, 1, 0, 0, 0, 1, 0, 0, 0 )
shapes/0/trigger = false
collision/layers = 1
collision/mask = 1
friction = 1.0
bounce = 0.0
constant_linear_velocity = Vector3( 0, 0, 0 )
constant_angular_velocity = Vector3( 0, 0, 0 )

[node name="CollisionShape" type="CollisionShape" parent="block2"]

_import_transform = Transform( 1, 0, 0, 0, 1, 0, 0, 0, 1, 0, 0, 0 )
shape = SubResource( 2 )
trigger = false
_update_shape_index = 0

[node name="MeshInstance" type="MeshInstance" parent="block2"]

_import_transform = Transform( 1, 0, 0, 0, 1, 0, 0, 0, 1, 0, 0, 0 )
layers = 1
geometry/visible = true
geometry/material_override = null
geometry/cast_shadow = 1
geometry/receive_shadows = true
geometry/range_begin = 0.0
geometry/range_end = 0.0
geometry/extra_cull_margin = 0.0
geometry/billboard = false
geometry/billboard_y = false
geometry/depth_scale = false
geometry/visible_in_all_rooms = false
geometry/use_baked_light = false
geometry/baked_light_tex_id = 0
mesh/mesh = ExtResource( 2 )
mesh/skeleton = NodePath("..")
material/0 = SubResource( 3 )

[node name="Camera" type="Camera" parent="."]

_import_transform = Transform( 1, 0, 0, 0, 1, 0, 0, 0, 1, 0, 0, 0 )
transform/local = Transform( 0.839902, 0, 0.542738, 0, 1, 0, -0.542738, 0, 0.839902, 3.44413, 2.12395, 5.29114 )
projection = 0
fov = 60.0
near = 0.1
far = 100.0
keep_aspect = 1
current = false
visible_layers = 1048575
environment = null
h_offset = 0.0
v_offset = 0.0

[node name="DirectionalLight" type="DirectionalLight" parent="."]

_import_transform = Transform( 1, 0, 0, 0, 1, 0, 0, 0, 1, 0, 0, 0 )
transform/local = Transform( 1, 0, 0, 0, 0.645609, 0.763668, 0, -0.763668, 0.645609, 0, 13.4443, 0 )
layers = 1
params/enabled = true
params/editor_only = false
params/bake_mode = 0
params/energy = 1.0
colors/diffuse = Color( 1, 1, 1, 1 )
colors/specular = Color( 1, 1, 1, 1 )
shadow/shadow = false
shadow/darkening = 0.0
shadow/z_offset = 0.05
shadow/z_slope_scale = 0.0
shadow/esm_multiplier = 60.0
shadow/blur_passes = 1.0
projector = null
operator = 0
shadow/mode = 0
shadow/max_distance = 0.0
shadow/split_weight = 0.5
shadow/zoffset_scale = 2.0


